{
    "cloudy_6": {
        "statuses": {
            "Door(s) open": [
                [
                    122.0,
                    1890.0
                ]
            ],
            "Parked": [
                [
                    38.0
                ]
            ],
            "Tunnel attached": [
                [
                    99.0
                ]
            ]
        },
        "length": 2700
    },
    "night_6": {
        "statuses": {
            "Door(s) open": [
                [
                    741.0,
                    2019.0
                ]
            ],
            "Parked": [
                [
                    647.0,
                    2978.0
                ]
            ],
            "Tunnel attached": [
                [
                    712.0,
                    2837.0
                ]
            ]
        },
        "length": 3600
    },
    "rainy_6": {
        "statuses": {
            "Door(s) open": [
                [
                    577.0,
                    3654.0
                ]
            ],
            "Parked": [
                [
                    481.0,
                    3731.0
                ]
            ],
            "Tunnel attached": [
                [
                    552.0,
                    3349.0
                ]
            ]
        },
        "length": 4500
    },
    "sunny_6": {
        "statuses": {
            "Door(s) open": [
                [
                    911.0,
                    4881.0
                ]
            ],
            "Parked": [
                [
                    843.0,
                    5473.0
                ]
            ],
            "Tunnel attached": [
                [
                    909.0,
                    5157.0
                ]
            ]
        },
        "length": 6300
    }
}